[
 {
   "source": "Alienvault IP Reputation",
   "url": "http://reputation.alienvault.com/reputation.data",
   "format": [ "ip", "f2", "f3", "description", "country", "city", "coordinates", "f8" ],
   "separator": "#"
 },
 {
   "source": "Bad IPs",
   "url": "https://www.badips.com/get/list/any/2",
   "format": ["ip"]
 },
 {
   "source": "BBcan177 DNSBL",
   "url": "https://gist.githubusercontent.com/BBcan177/4a8bf37c131be4803cb2/raw",
   "format": ["domain"],
   "comment": "#",
   "banner": true
 },
 {
   "source": "BBcan177 Malicious IPs",
   "url": "https://gist.githubusercontent.com/BBcan177/bf29d47ea04391cb3eb0/raw/",
   "format": ["ip", "comment"],
   "comment": "#",
   "separator": " "
 },
 {
   "source": "Blocklist.de Blocklist",
   "url": "https://lists.blocklist.de/lists/all.txt",
   "description": "All IP addresses that have attacked one of our (www.blocklist.de) customers/servers in the last 48 hours.",
   "format": ["ip"]
 },
 {
   "source": "Brute Force Blocker",
   "url": "http://danger.rulez.sk/projects/bruteforceblocker/blist.php",
   "format": ["ip", "last reported", "count", "id"],
   "separator": "\t",
   "comment": "#"
 },
 {
   "source": "CnC Domains",
   "url": "http://osint.bambenekconsulting.com/feeds/c2-dommasterlist.txt",
   "format": ["domain", "description", "created", "feed source"],
   "separator": ",",
   "comment": "#",
   "banner": true
 },
 {
   "source": "CnC IPs",
   "url": "http://osint.bambenekconsulting.com/feeds/c2-ipmasterlist.txt",
   "format": ["ip", "description", "created", "feed source"],
   "separator": ",",
   "comment": "#",
   "banner": true
 },
 {
   "source": "CI Bad Guys",
   "url": "http://cinsscore.com/list/ci-badguys.txt",
   "format": ["ip"]
 },
 {
   "source": "CoinBlocker Domains",
   "url": "https://zerodot1.gitlab.io/CoinBlockerLists/list.txt",
   "format": ["domain"]
 },
 {
   "source": "Compromised IPs",
   "url": "https://rules.emergingthreats.net/blockrules/compromised-ips.txt",
   "format": ["ip"]
 },
 {
   "source": "Cridex IPs",
   "url": "https://feodotracker.abuse.ch/downloads/ipblocklist.csv",
   "format": ["First seen","ip","port","Last Online","Malware"],
   "comment": "#",
   "separator": ",",
   "banner": true
 },
 {
   "source": "Darklist",
   "url": "http://www.darklist.de/raw.php",
   "format": ["ip"],
   "comment": "#",
   "banner": true
 },
 {
   "source": "Dictionary SSH Attacks",
   "url": "http://charles.the-haleys.org/ssh_dico_attack_hdeny_format.php/hostsdeny.txt",
   "format": ["null", "null", "ip"],
   "separator": " ",
   "comment": "#",
   "banner": true
 },
 {
   "source": "Domains Blacklist",
   "url": "http://www.joewein.net/dl/bl/dom-bl.txt",
   "format": ["domain", "type"],
   "separator": ";"
 },
 {
   "source": "GreenSnow Blacklist",
   "url": "http://blocklist.greensnow.co/greensnow.txt",
   "format": ["ip"]
 },
 {
   "source": "Hancitor IPs",
   "url": "https://raw.githubusercontent.com/LinuxTracker/Blocklists/master/HancitorIPs.txt",
   "format": ["ip", "null", "comment"],
   "separator": " ",
   "comment": "#",
   "banner": true
 },
 {
   "source": "Immortal Malware Domains",
   "url": "http://mirror2.malwaredomains.com/files/immortal_domains.txt",
   "format": ["domain"],
   "comment": "#",
   "banner": true
 },
 {
   "source": "IPSpamList",
   "url": "http://www.ipspamlist.com/public_feeds.csv",
   "format": ["first_seen","last_seen","ip","category","attacks_count"],
   "separator": ",",
   "comment": "#",
   "removefirst": true,
   "banner": true
 },
 {
   "source": "Malicious EXE IPs",
   "url": "http://www.urlvir.com/export-ip-addresses/",
   "format": ["ip"],
   "comment": "#",
   "banner": true
 },
 {
   "source": "Malicious EXE URLs",
   "url": "http://www.urlvir.com/export-hosts/",
   "format": ["domain"],
   "comment": "#",
   "banner": true
 },
 {
   "source": "Malware Corpus Tracker",
   "url": "https://tracker.h3x.eu/api/sites_1day.php",
   "format": ["family","type","url","status","first_seen","first_active","last_active","last_update"],
   "separator": ",",
   "comment": "#"
 },
 {
   "source": "Malware Domains List",
   "url": "http://www.malwaredomainlist.com/mdlcsv.php",
   "format": ["created", "url", "ip-path", "reverse lookup", "description", "field6", "asn", "field8", "country"],
   "separator": ",",
   "encoding": "ISO-8859-1"
 },
 {
   "source": "Monero Miner",
   "url": "https://raw.githubusercontent.com/Hestat/minerchk/master/hostslist.txt",
   "format": ["domain"]
 },
 {
   "source": "NoCoin",
   "url": "https://raw.githubusercontent.com/hoshsadiq/adblock-nocoin-list/master/hosts.txt",
   "format": ["mask", "domain"],
   "separator": " ",
   "comment": "#",
   "banner": true
 },
 {
   "source": "OpenPhish",
   "url": "https://openphish.com/feed.txt",
   "format": ["url"]
 },
 {
   "source": "PhishTank",
   "url": "http://data.phishtank.com/data/online-valid.csv",
   "format": ["phish_id","url","phish_detail_url","submission_time","verified","verification_time","online","target"],
   "separator": ",",
   "removefirst": true
 },
 {
   "source": "Ransomware Domains",
   "url": "https://ransomwaretracker.abuse.ch/downloads/RW_DOMBL.txt",
   "format": ["domain"],
   "comment": "#",
   "banner": true
 },
 {
   "source": "Ransomware IPs",
   "url": "https://ransomwaretracker.abuse.ch/downloads/RW_IPBL.txt",
   "format": ["ip"],
   "comment": "#",
   "banner": true
 },
 {
   "source": "Ransomware URLs",
   "url": "https://ransomwaretracker.abuse.ch/downloads/RW_URLBL.txt",
   "format": ["url"],
   "comment": "#",
   "banner": true
 },
 {
   "source": "SSL BL",
   "url": "https://sslbl.abuse.ch/blacklist/sslipblacklist.csv",
   "format": ["Firstseen","ip","port"],
   "separator": ",",
   "comment": "#",
   "banner": true
 },
 {
   "source": "Suspicious Domains",
   "url": "https://secure.dshield.org/feeds/suspiciousdomains_Low.txt",
   "format": ["domain"],
   "comment": "#",
   "removefirst": true,
   "banner": true
 },
 {
   "source": "Suspicious Dynamic DNS Providers",
   "url": "http://dns-bh.sagadc.org/dynamic_dns.txt",
   "format": ["domain", "comment"],
   "separator": "\t",
   "comment": "#",
   "banner": true
 },
 {
   "source": "Talos IP Blacklist",
   "url": "http://www.talosintelligence.com/documents/ip-blacklist",
   "format": ["ip"]
 },
 {
   "source": "Tor IPs",
   "url": "https://www.dan.me.uk/torlist/",
   "format": ["ip"]
 },
 {
   "source": "URLhaus",
   "url": "https://urlhaus.abuse.ch/downloads/text/",
   "format": ["url"],
   "comment": "#",
   "banner": true
 },
 {
   "source": "Zeus Bad Domains",
   "url": "https://zeustracker.abuse.ch/blocklist.php?download=baddomains",
   "format": ["domain"],
   "comment": "#",
   "banner": true
 },
 {
   "source": "Zeus Bad IPs",
   "url": "https://zeustracker.abuse.ch/blocklist.php?download=badips",
   "format": ["ip"],
   "comment": "#",
   "banner": true
 },
 {
   "source": "ipsum",
   "url": "https://raw.githubusercontent.com/stamparm/ipsum/master/ipsum.txt",
   "format": ["ip", "count"],
   "comment": "#",
   "banner": true,
   "separator": "\t"
 }
]
